{
  "project_info": {
    "project_number": "380347853613",
    "firebase_url": "https://budget-6e7fa.firebaseio.com",
    "project_id": "budget-6e7fa",
    "storage_bucket": "budget-6e7fa.appspot.com"
  },
  "client": [
    {
      "client_info": {
        "mobilesdk_app_id": "1:380347853613:android:e11364f527cbd368",
        "android_client_info": {
          "package_name": "com.robfed.budget"
        }
      },
      "oauth_client": [],
      "api_key": [
        {
          "current_key": "AIzaSyA_G4L0BoKI3ibvPKwD4bvBiKRSvMcRUgs"
        }
      ],
      "services": {
        "appinvite_service": {
          "other_platform_oauth_client": [
            {
              "client_id": "380347853613-df2ldcsfbdpoa5hgpkdl5hanthiebuvt.apps.googleusercontent.com",
              "client_type": 3
            }
          ]
        }
      }
    }
  ],
  "configuration_version": "1"
}